Data Preparation and Exploration
…
Back to the Case Study

summary_table

## # A tibble: 31 x 4
##       neighbourhood     n mean_rating mean_price_per
##               <chr> <int>       <dbl>          <dbl>
##  1 Allston-Brighton   364    90.06716       48.73848
##  2         Back Bay   291    91.53182       81.32095
##  3      Beacon Hill   174    93.81169       86.51669
##  4        Brookline     8   100.00000       55.95833
##  5        Cambridge     7    74.50000       55.48214
##  6      Charlestown    79    94.14754       78.65521
##  7    Chestnut Hill     4    90.00000       49.50000
##  8        Chinatown    78    92.37778       65.56432
##  9       Dorchester   195    89.57988       41.59576
## 10         Downtown     8    83.28571       59.54167
## # ... with 21 more rows
…
