…
# Look Around, Look Around…

The first thing you should do when you access a new data set is look
around to get an overview of its structure. One easy way to do this is
to just type the name of the data set into the console.

``` r
listings
```

    ## # A tibble: 3,585 x 95
    ##        id listing_url scrape_id last_scraped name  summary space
    ##     <dbl> <chr>           <dbl> <date>       <chr> <chr>   <chr>
    ##  1 1.21e7 https://ww…   2.02e13 2016-09-07   Sunn… Cozy, … The …
    ##  2 3.08e6 https://ww…   2.02e13 2016-09-07   Char… Charmi… Smal…
    ##  3 6.98e3 https://ww…   2.02e13 2016-09-07   Mexi… Come s… "Com…
    ##  4 1.44e6 https://ww…   2.02e13 2016-09-07   Spac… Come e… Most…
    ##  5 7.65e6 https://ww…   2.02e13 2016-09-07   Come… My com… Clea…
    ##  6 1.24e7 https://ww…   2.02e13 2016-09-07   Priv… Super … Our …
    ##  7 5.71e6 https://ww…   2.02e13 2016-09-07   New … "It's … The …
    ##  8 2.84e6 https://ww…   2.02e13 2016-09-07   "\"T… We can… "We …
    ##  9 7.53e5 https://ww…   2.02e13 2016-09-07   6 mi… Nice a… Nice…
    ## 10 8.49e5 https://ww…   2.02e13 2016-09-07   Perf… "This … Perf…
    ## # … with 3,575 more rows, and 88 more variables: description <chr>,
    ## #   experiences_offered <chr>, neighborhood_overview <chr>, notes <chr>,
    ## #   transit <chr>, access <chr>, interaction <chr>, house_rules <chr>,
    ## #   thumbnail_url <chr>, medium_url <chr>, picture_url <chr>,
    ## #   xl_picture_url <chr>, host_id <dbl>, host_url <chr>, host_name <chr>,
    ## #   host_since <date>, host_location <chr>, host_about <chr>,
    ## #   host_response_time <chr>, host_response_rate <chr>,
    ## #   host_acceptance_rate <chr>, host_is_superhost <lgl>,
    ## #   host_thumbnail_url <chr>, host_picture_url <chr>,
…
Let’s go ahead and do this. We’ll start out with a simple but slightly
clunky way, and then see how to dramatically simplify it using some
syntactical magic.

``` r
jp_only <- filter(listings, neighbourhood == 'Jamaica Plain')        # logical test
sorted  <- arrange(jp_only, desc(review_scores_rating))              # desc for descending order
concise <- select(sorted, neighbourhood, name, review_scores_rating) # show only these three columns
concise
```

    ## # A tibble: 314 x 3
    ##    neighbourhood name                                review_scores_rating
    ##    <chr>         <chr>                                              <dbl>
    ##  1 Jamaica Plain Part of a Large Condo Jamaica Plain                  100
    ##  2 Jamaica Plain Bed, Bath and Beyond III in JP                       100
    ##  3 Jamaica Plain Private floor in Jamaica Plain home                  100
    ##  4 Jamaica Plain Beautiful, airy room in JP                           100
    ##  5 Jamaica Plain Mark P.Coleman                                       100
    ##  6 Jamaica Plain Room in beautiful JP home                            100
    ##  7 Jamaica Plain Stay in Boston's best neighborhood!                  100
    ##  8 Jamaica Plain Tranquil Treetop Loft                                100
    ##  9 Jamaica Plain Private Room in Urban DIY House                      100
    ## 10 Jamaica Plain Sunny, Cozy and Convenient JP Home!                  100
    ## # … with 304 more rows
…
We could actually address all these problems using nested syntax
instead. We just put the results of each function inside the next one,
working inside out.

``` r
select(arrange(filter(listings, neighbourhood == 'Jamaica Plain'), desc(review_scores_rating)), neighbourhood, name, review_scores_rating)
```

    ## # A tibble: 314 x 3
    ##    neighbourhood name                                review_scores_rating
    ##    <chr>         <chr>                                              <dbl>
    ##  1 Jamaica Plain Part of a Large Condo Jamaica Plain                  100
    ##  2 Jamaica Plain Bed, Bath and Beyond III in JP                       100
    ##  3 Jamaica Plain Private floor in Jamaica Plain home                  100
    ##  4 Jamaica Plain Beautiful, airy room in JP                           100
    ##  5 Jamaica Plain Mark P.Coleman                                       100
    ##  6 Jamaica Plain Room in beautiful JP home                            100
    ##  7 Jamaica Plain Stay in Boston's best neighborhood!                  100
    ##  8 Jamaica Plain Tranquil Treetop Loft                                100
    ##  9 Jamaica Plain Private Room in Urban DIY House                      100
    ## 10 Jamaica Plain Sunny, Cozy and Convenient JP Home!                  100
    ## # … with 304 more rows
…
> `x %>% g(y)` is the same as `g(x,y)`

This example isn’t particularly impressive, but let’s see what happens
when we rewrite our Jamaica Plain code:

``` r
listings %>% 
    filter(neighbourhood == 'Jamaica Plain') %>%      # filter needs a logical test
    arrange(desc(review_scores_rating)) %>%           # desc() makes descending order 
    select(neighbourhood, name, review_scores_rating)
```

    ## # A tibble: 314 x 3
    ##    neighbourhood name                                review_scores_rating
    ##    <chr>         <chr>                                              <dbl>
    ##  1 Jamaica Plain Part of a Large Condo Jamaica Plain                  100
    ##  2 Jamaica Plain Bed, Bath and Beyond III in JP                       100
    ##  3 Jamaica Plain Private floor in Jamaica Plain home                  100
    ##  4 Jamaica Plain Beautiful, airy room in JP                           100
    ##  5 Jamaica Plain Mark P.Coleman                                       100
    ##  6 Jamaica Plain Room in beautiful JP home                            100
    ##  7 Jamaica Plain Stay in Boston's best neighborhood!                  100
    ##  8 Jamaica Plain Tranquil Treetop Loft                                100
    ##  9 Jamaica Plain Private Room in Urban DIY House                      100
    ## 10 Jamaica Plain Sunny, Cozy and Convenient JP Home!                  100
    ## # … with 304 more rows
…
So that’s all fun, but when analyzing complex data sets, global counts
and means are almost never what we want. Instead, we usually break out
our summary statistics between different groups. To do this, we
interpolate the `group_by` command:

``` r
listings %>% 
    group_by(neighbourhood) %>% 
    summarize(n = n(), 
              mean_rating = mean(review_scores_rating, na.rm = TRUE)) 
```

    ## # A tibble: 31 x 3
    ##    neighbourhood        n mean_rating
    ##    <chr>            <int>       <dbl>
    ##  1 Allston-Brighton   364        90.1
    ##  2 Back Bay           291        91.5
    ##  3 Beacon Hill        174        93.8
    ##  4 Brookline            8       100  
    ##  5 Cambridge            7        74.5
    ##  6 Charlestown         79        94.1
    ##  7 Chestnut Hill        4        90  
    ##  8 Chinatown           78        92.4
    ##  9 Dorchester         195        89.6
    ## 10 Downtown             8        83.3
    ## # … with 21 more rows
…
    ##  [1] "$250.00" "$65.00"  "$65.00"  "$75.00"  "$79.00"  "$75.00"  "$100.00"
    ##  [8] "$75.00"  "$58.00"  "$229.00"

So, we’ll use `mutate` and a text manipulation function to achieve the
conversion:

``` r
listings %>% 
    mutate(price = as.numeric(gsub('\\$|,', '', price)),
           price_per = price / accommodates)
```

    ## # A tibble: 3,585 x 97
    ##        id listing_url scrape_id last_scraped name  summary space
    ##     <dbl> <chr>           <dbl> <date>       <chr> <chr>   <chr>
    ##  1 1.21e7 https://ww…   2.02e13 2016-09-07   Sunn… Cozy, … The …
    ##  2 3.08e6 https://ww…   2.02e13 2016-09-07   Char… Charmi… Smal…
    ##  3 6.98e3 https://ww…   2.02e13 2016-09-07   Mexi… Come s… "Com…
    ##  4 1.44e6 https://ww…   2.02e13 2016-09-07   Spac… Come e… Most…
    ##  5 7.65e6 https://ww…   2.02e13 2016-09-07   Come… My com… Clea…
    ##  6 1.24e7 https://ww…   2.02e13 2016-09-07   Priv… Super … Our …
    ##  7 5.71e6 https://ww…   2.02e13 2016-09-07   New … "It's … The …
    ##  8 2.84e6 https://ww…   2.02e13 2016-09-07   "\"T… We can… "We …
    ##  9 7.53e5 https://ww…   2.02e13 2016-09-07   6 mi… Nice a… Nice…
    ## 10 8.49e5 https://ww…   2.02e13 2016-09-07   Perf… "This … Perf…
    ## # … with 3,575 more rows, and 90 more variables: description <chr>,
    ## #   experiences_offered <chr>, neighborhood_overview <chr>, notes <chr>,
    ## #   transit <chr>, access <chr>, interaction <chr>, house_rules <chr>,
    ## #   thumbnail_url <chr>, medium_url <chr>, picture_url <chr>,
    ## #   xl_picture_url <chr>, host_id <dbl>, host_url <chr>, host_name <chr>,
    ## #   host_since <date>, host_location <chr>, host_about <chr>,
    ## #   host_response_time <chr>, host_response_rate <chr>,
    ## #   host_acceptance_rate <chr>, host_is_superhost <lgl>,
    ## #   host_thumbnail_url <chr>, host_picture_url <chr>,
…
``` r
listings %>% 
    mutate(price = as.numeric(gsub('\\$|,', '', price)),
           price_per = price / accommodates) %>% 
    group_by(neighbourhood) %>% 
    summarize(n = n(), 
              mean_rating = mean(review_scores_rating, na.rm = TRUE),
              mean_price_per = mean(price_per, na.rm = TRUE)) 
```

    ## # A tibble: 31 x 4
    ##    neighbourhood        n mean_rating mean_price_per
    ##    <chr>            <int>       <dbl>          <dbl>
    ##  1 Allston-Brighton   364        90.1           48.7
    ##  2 Back Bay           291        91.5           81.3
    ##  3 Beacon Hill        174        93.8           86.5
    ##  4 Brookline            8       100             56.0
    ##  5 Cambridge            7        74.5           55.5
    ##  6 Charlestown         79        94.1           78.7
    ##  7 Chestnut Hill        4        90             49.5
    ##  8 Chinatown           78        92.4           65.6
    ##  9 Dorchester         195        89.6           41.6
    ## 10 Downtown             8        83.3           59.5
    ## # … with 21 more rows
…
