Advanced Topics in Data Science
…
Just checking

prices_nested$data[[1]] # get the first item of the list

## # A tibble: 359 x 2
##    date       price_per
##    <date>         <dbl>
##  1 2017-04-30      32.5
##  2 2017-04-29      37.5
##  3 2017-04-28      37.5
##  4 2017-04-27      32.5
##  5 2017-04-26      32.5
##  6 2017-04-25      32.5
##  7 2017-04-24      32.5
##  8 2017-04-23      32.5
##  9 2017-04-22      37.5
## 10 2017-04-21      37.5
## # … with 349 more rows
…
